…
model evaluation for a variety of national economic predictors

how much is 2024 prediction sensitive to change in the variable

choice of predictor will change the model

State Level Predictors

2024 unemployment data state by state from fred, does it improve predictive power compared to national data

way over-fitting due to only 12 data points in each state

## # A tibble: 49 × 5
##    state                r_squared  slope intercept slope_se
##    <chr>                    <dbl>  <dbl>     <dbl>    <dbl>
##  1 alabama                 0.156   1.80       38.8    1.32 
##  2 arizona                 0.0157 -0.424      57.5    1.06 
##  3 arkansas                0.0910  1.95       37.7    1.95 
##  4 california              0.196  -1.53       63.6    0.979
##  5 colorado                0.0156 -0.374      54.4    0.940
##  6 connecticut             0.146  -1.23       59.4    0.937
##  7 delaware                0.133  -1.04       57.3    0.836
##  8 district of columbia    0.0870 -8.93      117.    11.8  
##  9 florida                 0.0239 -0.317      55.4    0.640
## 10 georgia                 0.0697 -1.10       56.5    1.27 
## # ℹ 39 more rows

## # A tibble: 49 × 11
## # Groups:   year [1]
##     year quarter state     unemployment_rate r_squared  slope intercept slope_se
##    <dbl>   <int> <chr>                 <dbl>     <dbl>  <dbl>     <dbl>    <dbl>
##  1  2024       2 alabama                2.63    0.156   1.80       38.8    1.32 
##  2  2024       2 arkansas               3.37    0.0910  1.95       37.7    1.95 
##  3  2024       2 arizona                3.23    0.0157 -0.424      57.5    1.06 
##  4  2024       2 californ…              4.93    0.196  -1.53       63.6    0.979
##  5  2024       2 colorado               3.77    0.0156 -0.374      54.4    0.940
##  6  2024       2 connecti…              3.47    0.146  -1.23       59.4    0.937
##  7  2024       2 district…              5.37    0.0870 -8.93      117.    11.8  
##  8  2024       2 delaware               4.07    0.133  -1.04       57.3    0.836
##  9  2024       2 florida                3.17    0.0239 -0.317      55.4    0.640
## 10  2024       2 georgia                3.43    0.0697 -1.10       56.5    1.27 
## # ℹ 39 more rows
## # ℹ 3 more variables: predicted_pv2p <dbl>, ci_lower <dbl>, ci_upper <dbl>
…
