Week 8: Sudden Shocks and Shoring Up My Model | A minimal Hugo website
…
It is concerning how differently the model with the additional variables performs, and will need to be explored in the future. From each of these models, I would run simulations based on voter eligible population predictions and the logistic regression to find 2024 results.

## # A tibble: 7,732 × 60
## # Groups:   state [50]
##     year state       D_pv  R_pv D_pv2p R_pv2p votes_D votes_R total_votes
##    <dbl> <chr>      <dbl> <dbl>  <dbl>  <dbl>   <dbl>   <dbl>       <dbl>
##  1  1972 California  41.5  55.0   43.0   57.0 3475847 4602096     8367862
##  2  1972 California  41.5  55.0   43.0   57.0 3475847 4602096     8367862
##  3  1972 California  41.5  55.0   43.0   57.0 3475847 4602096     8367862
##  4  1972 California  41.5  55.0   43.0   57.0 3475847 4602096     8367862
##  5  1972 California  41.5  55.0   43.0   57.0 3475847 4602096     8367862
##  6  1972 California  41.5  55.0   43.0   57.0 3475847 4602096     8367862
##  7  1972 California  41.5  55.0   43.0   57.0 3475847 4602096     8367862
##  8  1972 California  41.5  55.0   43.0   57.0 3475847 4602096     8367862
##  9  1972 California  41.5  55.0   43.0   57.0 3475847 4602096     8367862
## 10  1972 California  41.5  55.0   43.0   57.0 3475847 4602096     8367862
## # ℹ 7,722 more rows
## # ℹ 51 more variables: two_party_votes <dbl>, D_pv_lag1 <dbl>, R_pv_lag1 <dbl>,
## #   D_pv2p_lag1 <dbl>, R_pv2p_lag1 <dbl>, D_pv_lag2 <dbl>, R_pv_lag2 <dbl>,
## #   D_pv2p_lag2 <dbl>, R_pv2p_lag2 <dbl>, weeks_left <dbl>, days_left <dbl>,
## #   party <chr>, candidate <chr>, poll_date <date>, poll_support <dbl>,
## #   before_convention <lgl>, state_abb <chr>, vep_turnout <chr>,
## #   vep_highest_office <chr>, vap_highest_office <chr>, total_ballots <dbl>, …
…
